7462 - 60000
19784 - 245000
10887 - 230000
15403 - 200000
20767 - 5000000
20769 - 5000000
20771 - 5000000
13754 - 859400
13755 - 859400
13858 - 1450000
13861 - 1450000
13864 - 1450000
13867 - 1450000
13870 - 1450000
13871 - 1450000
13872 - 1450000
13873 - 4500000
13876 - 3250000
13879 - 75000
13880 - 75000
13881 - 75000
13882 - 75000
13883 - 65000
13884 - 1450000
13885 - 1450000
13886 - 1450000
13887 - 1450000
13888 - 1450000
13889 - 1450000
13890 - 1450000
13891 - 1450000
13892 - 1450000
13893 - 1450000
13894 - 1450000
13895 - 1450000
13896 - 500000
13897 - 500000
13898 - 500000
13899 - 50000000
13900 - 50000000
13901 - 50000000
13902 - 35000000
13903 - 35000000
13904 - 35000000
13905 - 25000000
13907 - 25000000
13908 - 3500000
13910 - 3500000
13911 - 5400000
13913 - 5400000
13914 - 3000000
13916 - 3000000
13917 - 3400000
13919 - 3400000
13920 - 1900000
13922 - 1900000
13923 - 7600000
13925 - 7600000
13926 - 5200000
13928 - 5200000
13929 - 765200
13931 - 765200
13932 - 299800
13934 - 299800
13935 - 165800
13939 - 165800
13938 - 63600
13940 - 63600
13941 - 400100
13943 - 400100
13944 - 752300
13946 - 752300
13947 - 115300
13950 - 83300
18349 - 851000
18351 - 851000
18353 - 851000
18355 - 851000
18357 - 851000
18359 - 951000
18361 - 951000
18363 - 951000
18335 - 75000